{'gu': 'gujarati'
 'gd': 'scots gaelic'
 'ga': 'irish'
 'gl': 'galician'
 'lb': 'luxembourgish'
 'la': 'latin'
 'lo': 'lao'
 'tr': 'turkish'
 'lv': 'latvian'
 'lt': 'lithuanian'
 'th': 'thai'
 'tg': 'tajik'
 'te': 'telugu'
 'fil': 'Filipino'
 'haw': 'hawaiian'
 'yi': 'yiddish'
 'ceb': 'cebuano'
 'yo': 'yoruba'
 'de': 'german'
 'da': 'danish'
 'el': 'greek'
 'eo': 'esperanto'
 'en': 'english'
 'eu': 'basque'
 'et': 'estonian'
 'es': 'spanish'
 'ru': 'russian'
 'zh-cn': 'chinese (simplified)'
 'ro': 'romanian'
 'be': 'belarusian'
 'bg': 'bulgarian'
 'uk': 'ukrainian'
 'bn': 'bengali'
 'jw': 'javanese'
 'bs': 'bosnian'
 'ja': 'japanese'
 'xh': 'xhosa'
 'co': 'corsican'
 'ca': 'catalan'
 'cy': 'welsh'
 'cs': 'czech'
 'ps': 'pashto'
 'pt': 'portuguese'
 'zh-tw': 'chinese (traditional)'
 'tl': 'filipino'
 'pa': 'punjabi'
 'vi': 'vietnamese'
 'pl': 'polish'
 'hy': 'armenian'
 'hr': 'croatian'
 'ht': 'haitian creole'
 'hu': 'hungarian'
 'hmn': 'hmong'
 'hi': 'hindi'
 'ha': 'hausa'
 'he': 'Hebrew'
 'mg': 'malagasy'
 'uz': 'uzbek'
 'ml': 'malayalam'
 'mn': 'mongolian'
 'mi': 'maori'
 'mk': 'macedonian'
 'ur': 'urdu'
 'mt': 'maltese'
 'ms': 'malay'
 'mr': 'marathi'
 'ta': 'tamil'
 'my': 'myanmar (burmese)'
 'af': 'afrikaans'
 'sw': 'swahili'
 'is': 'icelandic'
 'am': 'amharic'
 'it': 'italian'
 'iw': 'hebrew'
 'sv': 'swedish'
 'ar': 'arabic'
 'su': 'sundanese'
 'zu': 'zulu'
 'az': 'azerbaijani'
 'id': 'indonesian'
 'ig': 'igbo'
 'nl': 'dutch'
 'no': 'norwegian'
 'ne': 'nepali'
 'ny': 'chichewa'
 'fr': 'french'
 'ku': 'kurdish (kurmanji)'
 'fy': 'frisian'
 'fa': 'persian'
 'fi': 'finnish'
 'ka': 'georgian'
 'kk': 'kazakh'
 'sr': 'serbian'
 'sq': 'albanian'
 'ko': 'korean'
 'kn': 'kannada'
 'km': 'khmer'
 'st': 'sesotho'
 'sk': 'slovak'
 'si': 'sinhala'
 'so': 'somali'
 'sn': 'shona'
 'sm': 'samoan'
 'sl': 'slovenian'
 'ky': 'kyrgyz'
 'sd': 'sindhi'}